<svg width="80" height="22" viewBox="0 0 80 22" fill="none" xmlns="http://www.w3.org/2000/svg">
<path fill-rule="evenodd" clip-rule="evenodd" d="M75.793 19.3297L73.6797 16.9136L71.2363 19.1664L67.1113 14.576L68.2578 13.5664L65.3711 10.3328L66.5234 9.32159L63.5938 6.09125L68.168 1.97284L69.6211 3.56323L72.0723 1.37445L73.5234 2.87683L74.4883 2.01123C74.377 1.94598 74.2637 1.88336 74.1484 1.82361L73.8379 1.66724C72.4434 0.985596 70.8789 0.601624 69.2324 0.601624C63.4434 0.601624 58.7227 5.32159 58.7227 11.1104C58.7227 16.8976 63.4434 21.6176 69.2324 21.6176C71.1113 21.6176 72.8828 21.12 74.4102 20.248L74.4746 20.2114L74.793 20.0209L75.0508 19.8576L75.3672 19.644C75.5137 19.5412 75.6543 19.4363 75.793 19.3297ZM17.6055 9.58722C17.9668 9.3952 18.5781 9.14404 19.2266 9.14404C20.7129 9.14404 21.5156 10.1744 21.5156 12.0896C21.5156 14.3328 20.4375 15.4256 18.6992 15.4256C18.0625 15.4256 17.0801 15.2208 16.3594 14.8384V6.46881L17.6055 6.16962V9.58722ZM12.8457 9.14404C11.0488 9.14404 10.125 10.4608 10.125 12.2849C10.125 14.1808 10.9531 15.4272 12.9668 15.4272C13.8281 15.4272 14.5488 15.1873 15.0879 14.8721V13.9648C14.4297 14.3569 13.8281 14.5872 13.1816 14.5872C11.9492 14.5872 11.3594 13.9536 11.3594 12.512H15.2676V12.072C15.2695 10.1136 14.3457 9.14404 12.8457 9.14404ZM11.3848 11.7072C11.5156 10.5104 12.0801 9.94562 12.8125 9.94562C13.4609 9.94562 14.0703 10.4464 14.1309 11.7072H11.3848ZM18.6973 14.5856C18.3965 14.5856 17.9805 14.5632 17.5957 14.3952V10.4736C18.0762 10.2097 18.4238 10.0784 18.9004 10.0784C19.7051 10.0784 20.2578 10.5712 20.2578 12.0912C20.2578 14.0352 19.5859 14.5856 18.6973 14.5856ZM44.0469 15.2816V10.9424C44.0469 9.70721 43.5059 9.14398 42.0684 9.1424C40.6895 9.1424 39.5508 9.70557 39.0117 10.0288V15.28H40.2559V10.5328C40.627 10.3168 41.2402 10.1008 41.7188 10.1008C42.334 10.1008 42.8008 10.2688 42.8008 11.216V15.2816H44.0469ZM29.5977 6.78082H31.084V15.2816H29.7891V9.11682H29.6836L27.2363 15.2816H26.4707L24.0234 9.26245H23.916V15.2816H22.8379V6.78082H24.2871L26.9746 13.4816H27.0352L29.5977 6.78082ZM32.4023 12.2849C32.4023 10.1873 33.5547 9.14404 35.1367 9.14404C36.7188 9.14404 37.8711 10.1857 37.8711 12.2849C37.8711 14.3345 36.7793 15.4272 35.1367 15.4272C33.4961 15.4272 32.4023 14.3345 32.4023 12.2849ZM35.1367 14.5856C34.2852 14.5856 33.6621 13.9296 33.6621 12.2849C33.6621 10.6656 34.3477 9.98242 35.1367 9.98242C35.9531 9.98242 36.6133 10.6656 36.6133 12.2849C36.6133 13.9296 35.9883 14.5856 35.1367 14.5856ZM78.6973 10.392L79.8203 11.6416L78.5723 12.7664L77.4473 11.5168L78.6973 10.392ZM56.252 9.34564H54.9688L53.6055 13.7617H53.5352L52 9.34723H50.6816L52.9824 15.3456C52.6953 16.2336 52.1914 16.8801 51.377 16.8801V17.8608C52.7539 17.8608 53.4844 16.9984 54.084 15.3425L56.252 9.34564ZM47.8828 9.14404C46.084 9.14404 45.1621 10.4608 45.1621 12.2849C45.1621 14.1808 45.9902 15.4272 48.002 15.4272C48.8652 15.4272 49.582 15.1873 50.123 14.8721V13.9648C49.8184 14.1463 49.5254 14.2932 49.2363 14.3985C48.9004 14.5208 48.5664 14.5872 48.2188 14.5872C46.9844 14.5872 46.3945 13.9536 46.3945 12.512H50.3027V12.072C50.3066 10.1136 49.3809 9.14404 47.8828 9.14404ZM47.8477 9.94562C47.1172 9.94562 46.5527 10.5104 46.418 11.7072H49.166C49.1074 10.4464 48.4941 9.94562 47.8477 9.94562ZM76.9688 14.7952L78.6562 16.6704L76.7812 18.3584L75.0918 16.4832L76.9688 14.7952ZM73.6777 5.15521L71.9902 3.28003L70.1152 4.96802L71.8027 6.8432L73.6777 5.15521ZM68.0273 3.92804L70.2754 6.42725L67.7773 8.67682L65.5273 6.17761L68.0273 3.92804ZM71.8438 8.73761L73.5312 10.6112L75.4062 8.92322L73.7148 7.04962L71.8438 8.73761ZM75.8496 7.80646L77.0957 6.68164L78.2188 7.93121L76.9746 9.05603L75.8496 7.80646ZM9.77539 6.78082H8.37305L7.14844 13.1232H7.06445L5.39648 6.78082H4.33008L2.77148 13.1232H2.68555L1.34375 6.78082H0L1.94336 15.2816H3.23828L4.82031 9.29761H4.90625L6.53516 15.2816H7.83203L9.77539 6.78082ZM75.1348 14.5696L73.4434 12.6976L75.3184 11.008L77.0098 12.88L75.1348 14.5696ZM75.502 2.96802L74.252 4.09283L75.377 5.34241L76.625 4.21759L75.502 2.96802ZM69.5684 12.944L67.3184 10.4448L69.8184 8.19202L72.0664 10.6912L69.5684 12.944ZM69.0977 14.7648L71.3457 17.264L73.8457 15.0144L71.5957 12.5152L69.0977 14.7648Z" fill="white"/>
</svg>
